%YAML 1.1
%TAG !u! tag:unity3d.com,2011:
--- !u!1045 &1
EditorBuildSettings:
  m_ObjectHideFlags: 0
  serializedVersion: 2
  m_Scenes:
  - enabled: 1
    path: Assets/Scenes/SampleScene.unity
    guid: 9fc0d4010bbf28b4594072e72b8655ab
  - enabled: 1
    path: Assets/SteamVR/InteractionSystem/Samples/Interactions_Example.unity
    guid: e3b77830391f10343929883b18f4d5ae
  m_configObjects:
    Unity.XR.OpenVR.Settings: {fileID: 11400000, guid: c02dc9cd6877c1043906f663fe47e18c, type: 2}
    com.unity.xr.management.loader_settings: {fileID: 11400000, guid: f940bf26d946b6045a64ecd46b405949, type: 2}
