%YAML 1.1
%TAG !u! tag:unity3d.com,2011:
--- !u!1001 &5054973679838299471
PrefabInstance:
  m_ObjectHideFlags: 0
  serializedVersion: 2
  m_Modification:
    serializedVersion: 3
    m_TransformParent: {fileID: 0}
    m_Modifications:
    - target: {fileID: -8679921383154817045, guid: 130939eb3a906d344bd48357c85d0d60, type: 3}
      propertyPath: m_LocalScale.x
      value: 0.01325377
      objectReference: {fileID: 0}
    - target: {fileID: -8679921383154817045, guid: 130939eb3a906d344bd48357c85d0d60, type: 3}
      propertyPath: m_LocalScale.y
      value: 0.01325377
      objectReference: {fileID: 0}
    - target: {fileID: -8679921383154817045, guid: 130939eb3a906d344bd48357c85d0d60, type: 3}
      propertyPath: m_LocalScale.z
      value: 0.01325377
      objectReference: {fileID: 0}
    - target: {fileID: -8679921383154817045, guid: 130939eb3a906d344bd48357c85d0d60, type: 3}
      propertyPath: m_LocalPosition.x
      value: 262.07315
      objectReference: {fileID: 0}
    - target: {fileID: -8679921383154817045, guid: 130939eb3a906d344bd48357c85d0d60, type: 3}
      propertyPath: m_LocalPosition.y
      value: 2.7248032
      objectReference: {fileID: 0}
    - target: {fileID: -8679921383154817045, guid: 130939eb3a906d344bd48357c85d0d60, type: 3}
      propertyPath: m_LocalPosition.z
      value: 214.66574
      objectReference: {fileID: 0}
    - target: {fileID: -8679921383154817045, guid: 130939eb3a906d344bd48357c85d0d60, type: 3}
      propertyPath: m_LocalRotation.w
      value: 0.7071068
      objectReference: {fileID: 0}
    - target: {fileID: -8679921383154817045, guid: 130939eb3a906d344bd48357c85d0d60, type: 3}
      propertyPath: m_LocalRotation.x
      value: -0.7071068
      objectReference: {fileID: 0}
    - target: {fileID: -8679921383154817045, guid: 130939eb3a906d344bd48357c85d0d60, type: 3}
      propertyPath: m_LocalRotation.y
      value: 0
      objectReference: {fileID: 0}
    - target: {fileID: -8679921383154817045, guid: 130939eb3a906d344bd48357c85d0d60, type: 3}
      propertyPath: m_LocalRotation.z
      value: -0
      objectReference: {fileID: 0}
    - target: {fileID: -8679921383154817045, guid: 130939eb3a906d344bd48357c85d0d60, type: 3}
      propertyPath: m_LocalEulerAnglesHint.x
      value: 0
      objectReference: {fileID: 0}
    - target: {fileID: -8679921383154817045, guid: 130939eb3a906d344bd48357c85d0d60, type: 3}
      propertyPath: m_LocalEulerAnglesHint.y
      value: 0
      objectReference: {fileID: 0}
    - target: {fileID: -8679921383154817045, guid: 130939eb3a906d344bd48357c85d0d60, type: 3}
      propertyPath: m_LocalEulerAnglesHint.z
      value: 0
      objectReference: {fileID: 0}
    - target: {fileID: -7511558181221131132, guid: 130939eb3a906d344bd48357c85d0d60, type: 3}
      propertyPath: m_Materials.Array.data[0]
      value: 
      objectReference: {fileID: 2100000, guid: 2b28e4997af5ce54d8f9ae5d84471935, type: 2}
    - target: {fileID: 919132149155446097, guid: 130939eb3a906d344bd48357c85d0d60, type: 3}
      propertyPath: m_Name
      value: esfera
      objectReference: {fileID: 0}
    m_RemovedComponents: []
    m_RemovedGameObjects: []
    m_AddedGameObjects: []
    m_AddedComponents: []
  m_SourcePrefab: {fileID: 100100000, guid: 130939eb3a906d344bd48357c85d0d60, type: 3}
